%YAML 1.1
%TAG !u! tag:unity3d.com,2011:
--- !u!21 &2100000
Material:
  serializedVersion: 6
  m_ObjectHideFlags: 0
  m_CorrespondingSourceObject: {fileID: 0}
  m_PrefabInternal: {fileID: 0}
  m_Name: 2
  m_Shader: {fileID: 4800000, guid: 4884dd4f4d3472643af439cf0504948a, type: 3}
  m_ShaderKeywords: FLIP_NORMAL _ALPHABLEND_ON _METALLICGLOSSMAP _NORMALMAP _PARALLAXMAP
    _SPECGLOSSMAP
  m_LightmapFlags: 4
  m_EnableInstancingVariants: 0
  m_DoubleSidedGI: 0
  m_CustomRenderQueue: -1
  stringTagMap: {}
  disabledShaderPasses: []
  m_SavedProperties:
    serializedVersion: 3
    m_TexEnvs:
    - _AOTex:
        m_Texture: {fileID: 2800000, guid: 4fba93a992481774199f08c431e495ff, type: 3}
        m_Scale: {x: 0.8, y: 0.8}
        m_Offset: {x: 0.5, y: 0.5}
    - _BumpMap:
        m_Texture: {fileID: 2800000, guid: d3f995ccd5bce3547b36ee89cb392b93, type: 3}
        m_Scale: {x: 1, y: 1}
        m_Offset: {x: 0, y: 0}
    - _BumpTex:
        m_Texture: {fileID: 2800000, guid: d3f995ccd5bce3547b36ee89cb392b93, type: 3}
        m_Scale: {x: 0.8, y: 0.8}
        m_Offset: {x: 0.5, y: 0.5}
    - _DetailAlbedoMap:
        m_Texture: {fileID: 0}
        m_Scale: {x: 1, y: 1}
        m_Offset: {x: 0, y: 0}
    - _DetailMask:
        m_Texture: {fileID: 2800000, guid: d3f995ccd5bce3547b36ee89cb392b93, type: 3}
        m_Scale: {x: 1, y: 1}
        m_Offset: {x: 0, y: 0}
    - _DetailNormalMap:
        m_Texture: {fileID: 0}
        m_Scale: {x: 1, y: 1}
        m_Offset: {x: 0, y: 0}
    - _DisplacementTex:
        m_Texture: {fileID: 0}
        m_Scale: {x: 1, y: 1}
        m_Offset: {x: 0, y: 0}
    - _EdgeTex:
        m_Texture: {fileID: 2800000, guid: 6381bf5def4d7fa428a1701bc77bcd95, type: 3}
        m_Scale: {x: 0.8, y: 0.8}
        m_Offset: {x: 0.5, y: 0.5}
    - _EmissionMap:
        m_Texture: {fileID: 0}
        m_Scale: {x: 0.8, y: 0.8}
        m_Offset: {x: 0.5, y: 0.5}
    - _MainTex:
        m_Texture: {fileID: 2800000, guid: baba694a92752eb4aa93078ece6e2d05, type: 3}
        m_Scale: {x: 0.8, y: 0.8}
        m_Offset: {x: 0.5, y: 0.5}
    - _MetallicGlossMap:
        m_Texture: {fileID: 2800000, guid: 4249831a9cd61244187cb56fd04efcca, type: 3}
        m_Scale: {x: 1, y: 1}
        m_Offset: {x: 0, y: 0}
    - _MetallicTex:
        m_Texture: {fileID: 2800000, guid: 4249831a9cd61244187cb56fd04efcca, type: 3}
        m_Scale: {x: 0.8, y: 0.8}
        m_Offset: {x: 0.5, y: 0.5}
    - _OcclusionMap:
        m_Texture: {fileID: 2800000, guid: 4fba93a992481774199f08c431e495ff, type: 3}
        m_Scale: {x: 1, y: 1}
        m_Offset: {x: 0, y: 0}
    - _ParallaxMap:
        m_Texture: {fileID: 2800000, guid: 2416a005f6b3bcf4c9aaff0c662c2391, type: 3}
        m_Scale: {x: 1, y: 1}
        m_Offset: {x: 0, y: 0}
    - _PropertyTex:
        m_Texture: {fileID: 0}
        m_Scale: {x: 1, y: 1}
        m_Offset: {x: 0, y: 0}
    - _SmoothnessTex:
        m_Texture: {fileID: 2800000, guid: 558975be0373d6943b133720481893d6, type: 3}
        m_Scale: {x: 0.8, y: 0.8}
        m_Offset: {x: 0.5, y: 0.5}
    - _SpecGlossMap:
        m_Texture: {fileID: 2800000, guid: 35f89d6bd9b8c9744a07a07b07abeff8, type: 3}
        m_Scale: {x: 1, y: 1}
        m_Offset: {x: 0, y: 0}
    m_Floats:
    - _AOPower: 5
    - _BumpScale: 1
    - _Cutoff: 0.5
    - _DetailNormalMapScale: 1
    - _DstBlend: 10
    - _EdgeLength: 3
    - _EdgePower: 5
    - _FlipNormal: 1
    - _GlossMapScale: 1
    - _Glossiness: 1.5
    - _GlossyReflections: 1
    - _Metallic: 0.2
    - _Mode: 2
    - _OcclusionStrength: 1
    - _Parallax: 0.08
    - _ParallaxBias: 0.5
    - _SmoothnessTextureChannel: 0
    - _SpecularHighlights: 1
    - _SrcBlend: 5
    - _UVSec: 0
    - _ZWrite: 0
    m_Colors:
    - _Color: {r: 1, g: 1, b: 1, a: 1}
    - _EmissionColor: {r: 0, g: 0, b: 0, a: 1}
